Data Wrangling with dplyr
…
Lets create a dataset which has the number of reported accidents by municipality and add the demographic information from the additional dataset.

crash_all <- crash_del %>%
  group_by(Muni_Name = tolower(Municipality.Name)) %>%
  summarise(Number_Accidents = n()) 

demo <- CountyMuniDemo 
demo$MUNICIPALITY_NAME <- tolower(demo$MUNICIPALITY_NAME)

demo2 <- select(demo, MUNICIPALITY_NAME, CENSUS_POPULATION)

crash_demo <- left_join(crash_all, demo2, by = c("Muni_Name"= "MUNICIPALITY_NAME"))
crash_demo

## # A tibble: 47 x 3
##    Muni_Name            Number_Accidents CENSUS_POPULATION
##    <chr>                           <int>             <int>
##  1 aldan boro                         43              4152
##  2 aston twp                         105             16592
##  3 bethel twp                         48              8791
##  4 brookhaven boro                    54              8006
##  5 chadds ford twp                   106              3640
##  6 chester city                      448             33972
##  7 chester heights boro               46              2531
##  8 chester twp                        59              3940
##  9 clifton heights boro               34              6652
## 10 collingdale boro                   66              8786
## # ... with 37 more rows
…
From 2010-2015, the rate of influenza vaccinations was higher in the US compared to PA. However, from 2015-2016, higher rate of given population received vaccination in PA compared to the US. There was an increasing trend in the rate of vaccinations received in both the US and PA from 2012 to 2015. However, like it happened from 2011 to 2012, the rate has decreased for both the US and PA from 2015 to 2016. Moreover, it is worth noting that there is more dip in the rate of vaccination of the US population than in the PA population from 2015 to 2016.

Lets see how immunization rates vary by region of the country.

Join the following dataset to our CDC dataset so that we have a column signifying the region of the country.

#We will use the following data to get the regions
USregions <- read_csv("~/DataScience/Statistics/Data/USregions.csv")
CDC_reg<- left_join(CDC, USregions, by = c("LocationDesc" = "State"))
CDC_reg

## # A tibble: 74,811 x 35
##    YearStart YearEnd LocationAbbr LocationDesc  DataSource Topic Question 
##        <int>   <int> <chr>        <chr>         <chr>      <chr> <chr>    
##  1      2016    2016 US           United States BRFSS      Alco Binge dr
##  2      2016    2016 AL           Alabama       BRFSS      Alco Binge dr
##  3      2016    2016 AK           Alaska        BRFSS      Alco Binge dr
##  4      2016    2016 AZ           Arizona       BRFSS      Alco Binge dr
##  5      2016    2016 AR           Arkansas      BRFSS      Alco Binge dr
##  6      2016    2016 CA           California    BRFSS      Alco Binge dr
##  7      2016    2016 CO           Colorado      BRFSS      Alco Binge dr
##  8      2016    2016 CT           Connecticut   BRFSS      Alco Binge dr
##  9      2016    2016 DE           Delaware      BRFSS      Alco Binge dr
## 10      2016    2016 DC           District of  BRFSS      Alco Binge dr
## # ... with 74,801 more rows, and 28 more variables: Response <chr>,
## #   DataValueUnit <chr>, DataValueType <chr>, DataValue <dbl>,
## #   DataValueAlt <dbl>, DataValueFootnoteSymbol <chr>,
## #   DatavalueFootnote <chr>, LowConfidenceLimit <dbl>,
## #   HighConfidenceLimit <dbl>, StratificationCategory1 <chr>,
## #   Stratification1 <chr>, StratificationCategory2 <chr>,
## #   Stratification2 <chr>, StratificationCategory3 <chr>,
## #   Stratification3 <chr>, GeoLocation <chr>, ResponseID <chr>,
## #   LocationID <chr>, TopicID <chr>, QuestionID <chr>,
…
CDC5 <- select(CDC_reg, YearStart, YearEnd, LocationAbbr, Region, Question, DataValueType, DataValue) %>%
  filter(YearStart == "2016",
         YearEnd == "2016",
         !LocationAbbr == "DC",
         !LocationAbbr == "GU",
         !LocationAbbr == "PR",
         !LocationAbbr == "VI",
         Question == "Influenza vaccination among noninstitutionalized adults aged >= 18 years",
         DataValueType == "Age-adjusted Prevalence") %>%
  arrange(desc(DataValue))
  
CDC5

## # A tibble: 51 x 7
##    YearStart YearEnd LocationAbbr Region Question  DataValueType DataValue
##        <int>   <int> <chr>        <chr>  <chr>     <chr>             <dbl>
##  1      2016    2016 SD           MW     Influenz Age-adjusted      47.2
##  2      2016    2016 RI           NE     Influenz Age-adjusted      45.1
##  3      2016    2016 IA           MW     Influenz Age-adjusted      45  
##  4      2016    2016 NE           MW     Influenz Age-adjusted      43.4
##  5      2016    2016 NC           S      Influenz Age-adjusted      43  
##  6      2016    2016 MN           MW     Influenz Age-adjusted      42.9
##  7      2016    2016 CO           W      Influenz Age-adjusted      42.3
##  8      2016    2016 MD           NE     Influenz Age-adjusted      42.1
##  9      2016    2016 VA           S      Influenz Age-adjusted      41.9
## 10      2016    2016 CT           NE     Influenz Age-adjusted      41.4
## # ... with 41 more rows
…
